INDEX VERSION 1.127+C:\Users\djdaz\Desktop\test\.metadata\.plugins\org.eclipse.jdt.core
4142306923.index
83085761.index
3876561862.index
1651349548.index
1948745554.index
2912312765.index
4236009997.index
849933906.index
1818640140.index
50283589.index
1734748515.index
1571865223.index
1078481902.index
900771366.index
1670528678.index
2900488954.index
172009966.index
3678980623.index
3040835562.index
1484076330.index
2581923231.index
2945162093.index
430205200.index
2261558828.index
37724859.index
3078212019.index
3930511455.index
3764404749.index
2714949763.index
1941798669.index
2611198918.index
3072996347.index
509712851.index
1514010600.index
1507339265.index
47423239.index
