<?xml version="1.0" encoding="UTF-8"?>
<session version="1.0">
<refactoring comment="Move &apos;home.html, ImageUpdate.js, main.css, Server IP Display.jpg, Server Login.jpg&apos; to &apos;WebContent&apos;" description="Move 5 resources to &apos;WebContent&apos;" destination="WebContent" element1="WebContent/Client Browser Display/home.html" element2="WebContent/Client Browser Display/ImageUpdate.js" element3="WebContent/Client Browser Display/main.css" element4="WebContent/Client Browser Display/Server IP Display.jpg" element5="WebContent/Client Browser Display/Server Login.jpg" flags="7" id="org.eclipse.ltk.core.refactoring.move.resources" resources="5" stamp="1490737330975" updateReferences="true"/>
</session>