<?xml version="1.0" encoding="UTF-8"?>
<session version="1.0">
<refactoring comment="Copy element &apos;StudentLogin.java&apos; to &apos;Student Gaze Tracker - Client - v2.0/src/view&apos;&#x0D;&#x0A;- Original project: &apos;Client - User Interface Displays - Alpha&apos;&#x0D;&#x0A;- Destination element: &apos;Student Gaze Tracker - Client - v2.0/src/view&apos;&#x0D;&#x0A;- Original element: &apos;StudentLogin.java&apos;" description="Copy compilation unit" destination="=Student Gaze Tracker - Client - v2.0/src&lt;view" element1="/src&lt;{StudentLogin.java" files="0" flags="589830" folders="0" id="org.eclipse.jdt.ui.copy" policy="org.eclipse.jdt.ui.copyResources" stamp="1491334275879" units="1" version="1.0"/>
</session>