<?xml version="1.0" encoding="UTF-8"?>
<session version="1.0">
<refactoring comment="Copy 3 packages to &apos;Student Gaze Tracker - Server - v2.0/src&apos;&#x0D;&#x0A;- Original project: &apos;Student Gaze Tracker - Server - v1.0&apos;&#x0D;&#x0A;- Destination element: &apos;Student Gaze Tracker - Server - v2.0/src&apos;&#x0D;&#x0A;- Original elements:&#x0D;&#x0A;     Student Gaze Tracker - Server - v1.0/src/shared&#x0D;&#x0A;     Student Gaze Tracker - Server - v1.0/src/resources&#x0D;&#x0A;     Student Gaze Tracker - Server - v1.0/src/serverCode" description="Copy packages" destination="=Student Gaze Tracker - Server - v2.0/src" element1="/src&lt;shared" element2="/src&lt;resources" element3="/src&lt;serverCode" flags="589830" fragments="3" id="org.eclipse.jdt.ui.copy" policy="org.eclipse.jdt.ui.copyPackages" stamp="1491332137771" version="1.0"/>
</session>